<?xml version="1.0" encoding="UTF-8"?>
<testsuite name="SpotifyTest" tests="1" skipped="0" failures="0" errors="0" timestamp="2020-02-07T15:16:57" hostname="admin1-HP-EliteBook-Folio-9480m" time="2.514">
  <properties/>
  <testcase name="givenMethodForGettingPlaylistCount" classname="SpotifyTest" time="2.514"/>
  <system-out><![CDATA[{
    "href": "https://api.spotify.com/v1/users/my55whm8jotn3kr4c54svsjq4/playlists?offset=0&limit=20",
    "items": [
        {
            "collaborative": false,
            "description": "Updated playlist description",
            "external_urls": {
                "spotify": "https://open.spotify.com/playlist/6qGrd3sae3c3XSLJ0oLYxX"
            },
            "href": "https://api.spotify.com/v1/playlists/6qGrd3sae3c3XSLJ0oLYxX",
            "id": "6qGrd3sae3c3XSLJ0oLYxX",
            "images": [
                
            ],
            "name": "New Updated list",
            "owner": {
                "display_name": "priya",
                "external_urls": {
                    "spotify": "https://open.spotify.com/user/my55whm8jotn3kr4c54svsjq4"
                },
                "href": "https://api.spotify.com/v1/users/my55whm8jotn3kr4c54svsjq4",
                "id": "my55whm8jotn3kr4c54svsjq4",
                "type": "user",
                "uri": "spotify:user:my55whm8jotn3kr4c54svsjq4"
            },
            "primary_color": null,
            "public": false,
            "snapshot_id": "OTIsZTAwYzM3N2RjOWIyZjgxYTYzMmVhYTRlZjk3NjA3NjA2NzVmZTQ4Ng==",
            "tracks": {
                "href": "https://api.spotify.com/v1/playlists/6qGrd3sae3c3XSLJ0oLYxX/tracks",
                "total": 0
            },
            "type": "playlist",
            "uri": "spotify:playlist:6qGrd3sae3c3XSLJ0oLYxX"
        },
        {
            "collaborative": false,
            "description": "New playlist description",
            "external_urls": {
                "spotify": "https://open.spotify.com/playlist/6FoeqnjiYxbT2pFZbGUZbk"
            },
            "href": "https://api.spotify.com/v1/playlists/6FoeqnjiYxbT2pFZbGUZbk",
            "id": "6FoeqnjiYxbT2pFZbGUZbk",
            "images": [
                
            ],
            "name": "New Playlist",
            "owner": {
                "display_name": "priya",
                "external_urls": {
                    "spotify": "https://open.spotify.com/user/my55whm8jotn3kr4c54svsjq4"
                },
                "href": "https://api.spotify.com/v1/users/my55whm8jotn3kr4c54svsjq4",
                "id": "my55whm8jotn3kr4c54svsjq4",
                "type": "user",
                "uri": "spotify:user:my55whm8jotn3kr4c54svsjq4"
            },
            "primary_color": null,
            "public": false,
            "snapshot_id": "MixkOWI3NTJlOGU3YWRiYjViNjM3ZWEwNWM5Y2FlZmQ1OTgyNWJhZjNh",
            "tracks": {
                "href": "https://api.spotify.com/v1/playlists/6FoeqnjiYxbT2pFZbGUZbk/tracks",
                "total": 0
            },
            "type": "playlist",
            "uri": "spotify:playlist:6FoeqnjiYxbT2pFZbGUZbk"
        },
        {
            "collaborative": false,
            "description": "New playlist description",
            "external_urls": {
                "spotify": "https://open.spotify.com/playlist/3gUj6CV3tGgyhUFfk0rtaa"
            },
            "href": "https://api.spotify.com/v1/playlists/3gUj6CV3tGgyhUFfk0rtaa",
            "id": "3gUj6CV3tGgyhUFfk0rtaa",
            "images": [
                
            ],
            "name": "New Playlist",
            "owner": {
                "display_name": "priya",
                "external_urls": {
                    "spotify": "https://open.spotify.com/user/my55whm8jotn3kr4c54svsjq4"
                },
                "href": "https://api.spotify.com/v1/users/my55whm8jotn3kr4c54svsjq4",
                "id": "my55whm8jotn3kr4c54svsjq4",
                "type": "user",
                "uri": "spotify:user:my55whm8jotn3kr4c54svsjq4"
            },
            "primary_color": null,
            "public": false,
            "snapshot_id": "MiwwMDZjMDViMTM3NTM5ZDI2MjgzZWUxYjA5YWFhYmZlZWE0MzgzNDMy",
            "tracks": {
                "href": "https://api.spotify.com/v1/playlists/3gUj6CV3tGgyhUFfk0rtaa/tracks",
                "total": 0
            },
            "type": "playlist",
            "uri": "spotify:playlist:3gUj6CV3tGgyhUFfk0rtaa"
        },
        {
            "collaborative": false,
            "description": "New playlist description",
            "external_urls": {
                "spotify": "https://open.spotify.com/playlist/6R5v4FpRIwUMwLbL87olUu"
            },
            "href": "https://api.spotify.com/v1/playlists/6R5v4FpRIwUMwLbL87olUu",
            "id": "6R5v4FpRIwUMwLbL87olUu",
            "images": [
                
            ],
            "name": "New Playlist",
            "owner": {
                "display_name": "priya",
                "external_urls": {
                    "spotify": "https://open.spotify.com/user/my55whm8jotn3kr4c54svsjq4"
                },
                "href": "https://api.spotify.com/v1/users/my55whm8jotn3kr4c54svsjq4",
                "id": "my55whm8jotn3kr4c54svsjq4",
                "type": "user",
                "uri": "spotify:user:my55whm8jotn3kr4c54svsjq4"
            },
            "primary_color": null,
            "public": false,
            "snapshot_id": "Miw3NGYyZTdmZjhmYjI0NTU5N2Q5NDRkZGEyZDk0NDM2YmYyOGI0MjRk",
            "tracks": {
                "href": "https://api.spotify.com/v1/playlists/6R5v4FpRIwUMwLbL87olUu/tracks",
                "total": 0
            },
            "type": "playlist",
            "uri": "spotify:playlist:6R5v4FpRIwUMwLbL87olUu"
        },
        {
            "collaborative": false,
            "description": "New playlist description",
            "external_urls": {
                "spotify": "https://open.spotify.com/playlist/6Z0LTOGs84vDOH26teZCol"
            },
            "href": "https://api.spotify.com/v1/playlists/6Z0LTOGs84vDOH26teZCol",
            "id": "6Z0LTOGs84vDOH26teZCol",
            "images": [
                
            ],
            "name": "New Playlist",
            "owner": {
                "display_name": "priya",
                "external_urls": {
                    "spotify": "https://open.spotify.com/user/my55whm8jotn3kr4c54svsjq4"
                },
                "href": "https://api.spotify.com/v1/users/my55whm8jotn3kr4c54svsjq4",
                "id": "my55whm8jotn3kr4c54svsjq4",
                "type": "user",
                "uri": "spotify:user:my55whm8jotn3kr4c54svsjq4"
            },
            "primary_color": null,
            "public": false,
            "snapshot_id": "MixkZGZmMTI0Yjg3YTExMjkzZDNlNTgyOTBjNDM1NWIzOWI3NDJkMDZk",
            "tracks": {
                "href": "https://api.spotify.com/v1/playlists/6Z0LTOGs84vDOH26teZCol/tracks",
                "total": 0
            },
            "type": "playlist",
            "uri": "spotify:playlist:6Z0LTOGs84vDOH26teZCol"
        },
        {
            "collaborative": false,
            "description": "New playlist description",
            "external_urls": {
                "spotify": "https://open.spotify.com/playlist/4hOaVaUfDfRHfLc0Vxnese"
            },
            "href": "https://api.spotify.com/v1/playlists/4hOaVaUfDfRHfLc0Vxnese",
            "id": "4hOaVaUfDfRHfLc0Vxnese",
            "images": [
                
            ],
            "name": "New Playlist",
            "owner": {
                "display_name": "priya",
                "external_urls": {
                    "spotify": "https://open.spotify.com/user/my55whm8jotn3kr4c54svsjq4"
                },
                "href": "https://api.spotify.com/v1/users/my55whm8jotn3kr4c54svsjq4",
                "id": "my55whm8jotn3kr4c54svsjq4",
                "type": "user",
                "uri": "spotify:user:my55whm8jotn3kr4c54svsjq4"
            },
            "primary_color": null,
            "public": false,
            "snapshot_id": "MixmZDkwM2I2ZDk3MDdkZmM0ZDEyOTdiNjcxMzIzMzEyNjRmYjk1ZGVl",
            "tracks": {
                "href": "https://api.spotify.com/v1/playlists/4hOaVaUfDfRHfLc0Vxnese/tracks",
                "total": 0
            },
            "type": "playlist",
            "uri": "spotify:playlist:4hOaVaUfDfRHfLc0Vxnese"
        },
        {
            "collaborative": false,
            "description": "New playlist description",
            "external_urls": {
                "spotify": "https://open.spotify.com/playlist/55WTKdVgl7EIAHhZNhhF1T"
            },
            "href": "https://api.spotify.com/v1/playlists/55WTKdVgl7EIAHhZNhhF1T",
            "id": "55WTKdVgl7EIAHhZNhhF1T",
            "images": [
                
            ],
            "name": "New Playlist",
            "owner": {
                "display_name": "priya",
                "external_urls": {
                    "spotify": "https://open.spotify.com/user/my55whm8jotn3kr4c54svsjq4"
                },
                "href": "https://api.spotify.com/v1/users/my55whm8jotn3kr4c54svsjq4",
                "id": "my55whm8jotn3kr4c54svsjq4",
                "type": "user",
                "uri": "spotify:user:my55whm8jotn3kr4c54svsjq4"
            },
            "primary_color": null,
            "public": false,
            "snapshot_id": "MixjMDg0YTMzZmMxYmI1ODZkODI3YTNkN2NiOTEyNTgyNjE2MDgyZDgw",
            "tracks": {
                "href": "https://api.spotify.com/v1/playlists/55WTKdVgl7EIAHhZNhhF1T/tracks",
                "total": 0
            },
            "type": "playlist",
            "uri": "spotify:playlist:55WTKdVgl7EIAHhZNhhF1T"
        },
        {
            "collaborative": false,
            "description": "New playlist description",
            "external_urls": {
                "spotify": "https://open.spotify.com/playlist/4jpK08Lpg4Q3uxY4sMnt5O"
            },
            "href": "https://api.spotify.com/v1/playlists/4jpK08Lpg4Q3uxY4sMnt5O",
            "id": "4jpK08Lpg4Q3uxY4sMnt5O",
            "images": [
                
            ],
            "name": "new playlist",
            "owner": {
                "display_name": "priya",
                "external_urls": {
                    "spotify": "https://open.spotify.com/user/my55whm8jotn3kr4c54svsjq4"
                },
                "href": "https://api.spotify.com/v1/users/my55whm8jotn3kr4c54svsjq4",
                "id": "my55whm8jotn3kr4c54svsjq4",
                "type": "user",
                "uri": "spotify:user:my55whm8jotn3kr4c54svsjq4"
            },
            "primary_color": null,
            "public": false,
            "snapshot_id": "Miw0ZmFkZDk1MjliZWU3YTY1YWZiMDljMWE4NTQ1NTdjNDQ4Yzg3Y2Iz",
            "tracks": {
                "href": "https://api.spotify.com/v1/playlists/4jpK08Lpg4Q3uxY4sMnt5O/tracks",
                "total": 0
            },
            "type": "playlist",
            "uri": "spotify:playlist:4jpK08Lpg4Q3uxY4sMnt5O"
        },
        {
            "collaborative": false,
            "description": "New playlist description",
            "external_urls": {
                "spotify": "https://open.spotify.com/playlist/2TEkqJWmngpX0zY7Noj2OO"
            },
            "href": "https://api.spotify.com/v1/playlists/2TEkqJWmngpX0zY7Noj2OO",
            "id": "2TEkqJWmngpX0zY7Noj2OO",
            "images": [
                
            ],
            "name": "new playlist",
            "owner": {
                "display_name": "priya",
                "external_urls": {
                    "spotify": "https://open.spotify.com/user/my55whm8jotn3kr4c54svsjq4"
                },
                "href": "https://api.spotify.com/v1/users/my55whm8jotn3kr4c54svsjq4",
                "id": "my55whm8jotn3kr4c54svsjq4",
                "type": "user",
                "uri": "spotify:user:my55whm8jotn3kr4c54svsjq4"
            },
            "primary_color": null,
            "public": false,
            "snapshot_id": "MixiMDIwODMzOGE2NWUxYjIwMDdlMDIwMmI3ZWRiYWJiN2M1NzBhOTgx",
            "tracks": {
                "href": "https://api.spotify.com/v1/playlists/2TEkqJWmngpX0zY7Noj2OO/tracks",
                "total": 0
            },
            "type": "playlist",
            "uri": "spotify:playlist:2TEkqJWmngpX0zY7Noj2OO"
        },
        {
            "collaborative": false,
            "description": "New playlist description",
            "external_urls": {
                "spotify": "https://open.spotify.com/playlist/1wjQtBoOY3YSDMtu29HgfK"
            },
            "href": "https://api.spotify.com/v1/playlists/1wjQtBoOY3YSDMtu29HgfK",
            "id": "1wjQtBoOY3YSDMtu29HgfK",
            "images": [
                
            ],
            "name": "new playlist",
            "owner": {
                "display_name": "priya",
                "external_urls": {
                    "spotify": "https://open.spotify.com/user/my55whm8jotn3kr4c54svsjq4"
                },
                "href": "https://api.spotify.com/v1/users/my55whm8jotn3kr4c54svsjq4",
                "id": "my55whm8jotn3kr4c54svsjq4",
                "type": "user",
                "uri": "spotify:user:my55whm8jotn3kr4c54svsjq4"
            },
            "primary_color": null,
            "public": false,
            "snapshot_id": "Miw0OTA3NTg0NDA1YzVkZDVhMGIyMWQ5YjJmOTJmZDdhZTQwZmM4NGNj",
            "tracks": {
                "href": "https://api.spotify.com/v1/playlists/1wjQtBoOY3YSDMtu29HgfK/tracks",
                "total": 0
            },
            "type": "playlist",
            "uri": "spotify:playlist:1wjQtBoOY3YSDMtu29HgfK"
        },
        {
            "collaborative": false,
            "description": "New playlist description",
            "external_urls": {
                "spotify": "https://open.spotify.com/playlist/0SDyq7WdBI099CulPMZ9NM"
            },
            "href": "https://api.spotify.com/v1/playlists/0SDyq7WdBI099CulPMZ9NM",
            "id": "0SDyq7WdBI099CulPMZ9NM",
            "images": [
                
            ],
            "name": "new playlist",
            "owner": {
                "display_name": "priya",
                "external_urls": {
                    "spotify": "https://open.spotify.com/user/my55whm8jotn3kr4c54svsjq4"
                },
                "href": "https://api.spotify.com/v1/users/my55whm8jotn3kr4c54svsjq4",
                "id": "my55whm8jotn3kr4c54svsjq4",
                "type": "user",
                "uri": "spotify:user:my55whm8jotn3kr4c54svsjq4"
            },
            "primary_color": null,
            "public": false,
            "snapshot_id": "MiwzMWNhMjY5NjZkMGEzMGU5NzY0OTFmYzljY2FlMTcwOTA1MTlkZmNj",
            "tracks": {
                "href": "https://api.spotify.com/v1/playlists/0SDyq7WdBI099CulPMZ9NM/tracks",
                "total": 0
            },
            "type": "playlist",
            "uri": "spotify:playlist:0SDyq7WdBI099CulPMZ9NM"
        },
        {
            "collaborative": false,
            "description": "New playlist description",
            "external_urls": {
                "spotify": "https://open.spotify.com/playlist/16H7mWDLwkRO5XSj71z7MM"
            },
            "href": "https://api.spotify.com/v1/playlists/16H7mWDLwkRO5XSj71z7MM",
            "id": "16H7mWDLwkRO5XSj71z7MM",
            "images": [
                
            ],
            "name": "Old",
            "owner": {
                "display_name": "priya",
                "external_urls": {
                    "spotify": "https://open.spotify.com/user/my55whm8jotn3kr4c54svsjq4"
                },
                "href": "https://api.spotify.com/v1/users/my55whm8jotn3kr4c54svsjq4",
                "id": "my55whm8jotn3kr4c54svsjq4",
                "type": "user",
                "uri": "spotify:user:my55whm8jotn3kr4c54svsjq4"
            },
            "primary_color": null,
            "public": false,
            "snapshot_id": "MixkZTY3MzkwODhjNzJmNzc5N2I2MjcwODUxMGUxNWFhNDE0NTVkMDU0",
            "tracks": {
                "href": "https://api.spotify.com/v1/playlists/16H7mWDLwkRO5XSj71z7MM/tracks",
                "total": 0
            },
            "type": "playlist",
            "uri": "spotify:playlist:16H7mWDLwkRO5XSj71z7MM"
        },
        {
            "collaborative": false,
            "description": "New playlist description",
            "external_urls": {
                "spotify": "https://open.spotify.com/playlist/3bobsAcjYrgdsJEy6iH3Ep"
            },
            "href": "https://api.spotify.com/v1/playlists/3bobsAcjYrgdsJEy6iH3Ep",
            "id": "3bobsAcjYrgdsJEy6iH3Ep",
            "images": [
                
            ],
            "name": "Old",
            "owner": {
                "display_name": "priya",
                "external_urls": {
                    "spotify": "https://open.spotify.com/user/my55whm8jotn3kr4c54svsjq4"
                },
                "href": "https://api.spotify.com/v1/users/my55whm8jotn3kr4c54svsjq4",
                "id": "my55whm8jotn3kr4c54svsjq4",
                "type": "user",
                "uri": "spotify:user:my55whm8jotn3kr4c54svsjq4"
            },
            "primary_color": null,
            "public": false,
            "snapshot_id": "Miw1YjJiNmM0NzIyNDM1YjlkOGQzZjUzOTU5OWMzMGE3ZmM3NWIwNjNh",
            "tracks": {
                "href": "https://api.spotify.com/v1/playlists/3bobsAcjYrgdsJEy6iH3Ep/tracks",
                "total": 0
            },
            "type": "playlist",
            "uri": "spotify:playlist:3bobsAcjYrgdsJEy6iH3Ep"
        },
        {
            "collaborative": false,
            "description": "New playlist description",
            "external_urls": {
                "spotify": "https://open.spotify.com/playlist/2I8gikXyEgKbtd464lu4G1"
            },
            "href": "https://api.spotify.com/v1/playlists/2I8gikXyEgKbtd464lu4G1",
            "id": "2I8gikXyEgKbtd464lu4G1",
            "images": [
                
            ],
            "name": "Old",
            "owner": {
                "display_name": "priya",
                "external_urls": {
                    "spotify": "https://open.spotify.com/user/my55whm8jotn3kr4c54svsjq4"
                },
                "href": "https://api.spotify.com/v1/users/my55whm8jotn3kr4c54svsjq4",
                "id": "my55whm8jotn3kr4c54svsjq4",
                "type": "user",
                "uri": "spotify:user:my55whm8jotn3kr4c54svsjq4"
            },
            "primary_color": null,
            "public": false,
            "snapshot_id": "MiwzMDNmMjIzYWQxYzA5MDBkMTgxYWI2Mjg4ZmM4N2UyZGFhODMzNDZl",
            "tracks": {
                "href": "https://api.spotify.com/v1/playlists/2I8gikXyEgKbtd464lu4G1/tracks",
                "total": 0
            },
            "type": "playlist",
            "uri": "spotify:playlist:2I8gikXyEgKbtd464lu4G1"
        },
        {
            "collaborative": false,
            "description": "New playlist description",
            "external_urls": {
                "spotify": "https://open.spotify.com/playlist/3mGo7MQyqeGpf3gnucmhjl"
            },
            "href": "https://api.spotify.com/v1/playlists/3mGo7MQyqeGpf3gnucmhjl",
            "id": "3mGo7MQyqeGpf3gnucmhjl",
            "images": [
                
            ],
            "name": "Old",
            "owner": {
                "display_name": "priya",
                "external_urls": {
                    "spotify": "https://open.spotify.com/user/my55whm8jotn3kr4c54svsjq4"
                },
                "href": "https://api.spotify.com/v1/users/my55whm8jotn3kr4c54svsjq4",
                "id": "my55whm8jotn3kr4c54svsjq4",
                "type": "user",
                "uri": "spotify:user:my55whm8jotn3kr4c54svsjq4"
            },
            "primary_color": null,
            "public": false,
            "snapshot_id": "MixmMGQyOTRkNmE1M2Y0ZDE4ZDIwMmU3MzgzODEyYjQ3NWFmYzY3ZWEx",
            "tracks": {
                "href": "https://api.spotify.com/v1/playlists/3mGo7MQyqeGpf3gnucmhjl/tracks",
                "total": 0
            },
            "type": "playlist",
            "uri": "spotify:playlist:3mGo7MQyqeGpf3gnucmhjl"
        },
        {
            "collaborative": false,
            "description": "New playlist description",
            "external_urls": {
                "spotify": "https://open.spotify.com/playlist/2oDzgs31qqzD0uhuUUn3Ya"
            },
            "href": "https://api.spotify.com/v1/playlists/2oDzgs31qqzD0uhuUUn3Ya",
            "id": "2oDzgs31qqzD0uhuUUn3Ya",
            "images": [
                
            ],
            "name": "Old",
            "owner": {
                "display_name": "priya",
                "external_urls": {
                    "spotify": "https://open.spotify.com/user/my55whm8jotn3kr4c54svsjq4"
                },
                "href": "https://api.spotify.com/v1/users/my55whm8jotn3kr4c54svsjq4",
                "id": "my55whm8jotn3kr4c54svsjq4",
                "type": "user",
                "uri": "spotify:user:my55whm8jotn3kr4c54svsjq4"
            },
            "primary_color": null,
            "public": false,
            "snapshot_id": "Miw4MGU1MDEzNDJhMmQyZDM4NjM2YmNkNDFiZTE3ZjNkZjQ5ODIxOGU0",
            "tracks": {
                "href": "https://api.spotify.com/v1/playlists/2oDzgs31qqzD0uhuUUn3Ya/tracks",
                "total": 0
            },
            "type": "playlist",
            "uri": "spotify:playlist:2oDzgs31qqzD0uhuUUn3Ya"
        },
        {
            "collaborative": false,
            "description": "New playlist description",
            "external_urls": {
                "spotify": "https://open.spotify.com/playlist/5sWPuIz7IakovJJo183V7w"
            },
            "href": "https://api.spotify.com/v1/playlists/5sWPuIz7IakovJJo183V7w",
            "id": "5sWPuIz7IakovJJo183V7w",
            "images": [
                
            ],
            "name": "Old",
            "owner": {
                "display_name": "priya",
                "external_urls": {
                    "spotify": "https://open.spotify.com/user/my55whm8jotn3kr4c54svsjq4"
                },
                "href": "https://api.spotify.com/v1/users/my55whm8jotn3kr4c54svsjq4",
                "id": "my55whm8jotn3kr4c54svsjq4",
                "type": "user",
                "uri": "spotify:user:my55whm8jotn3kr4c54svsjq4"
            },
            "primary_color": null,
            "public": false,
            "snapshot_id": "Miw4ZDU5YTEzNWY5ODEyZGE5ZTE4YWJlYWZmMTkyYTNmMWU5NmEwMTQw",
            "tracks": {
                "href": "https://api.spotify.com/v1/playlists/5sWPuIz7IakovJJo183V7w/tracks",
                "total": 0
            },
            "type": "playlist",
            "uri": "spotify:playlist:5sWPuIz7IakovJJo183V7w"
        },
        {
            "collaborative": false,
            "description": "New playlist description",
            "external_urls": {
                "spotify": "https://open.spotify.com/playlist/3jUHMNVM967FKQfPVeCFiY"
            },
            "href": "https://api.spotify.com/v1/playlists/3jUHMNVM967FKQfPVeCFiY",
            "id": "3jUHMNVM967FKQfPVeCFiY",
            "images": [
                
            ],
            "name": "Old",
            "owner": {
                "display_name": "priya",
                "external_urls": {
                    "spotify": "https://open.spotify.com/user/my55whm8jotn3kr4c54svsjq4"
                },
                "href": "https://api.spotify.com/v1/users/my55whm8jotn3kr4c54svsjq4",
                "id": "my55whm8jotn3kr4c54svsjq4",
                "type": "user",
                "uri": "spotify:user:my55whm8jotn3kr4c54svsjq4"
            },
            "primary_color": null,
            "public": false,
            "snapshot_id": "MixmNzI2YjVmZTg3YmZlZWI0MTM3YzhmOWM5MThlZTNjZWI2MTFmYTE5",
            "tracks": {
                "href": "https://api.spotify.com/v1/playlists/3jUHMNVM967FKQfPVeCFiY/tracks",
                "total": 0
            },
            "type": "playlist",
            "uri": "spotify:playlist:3jUHMNVM967FKQfPVeCFiY"
        },
        {
            "collaborative": false,
            "description": "New playlist description",
            "external_urls": {
                "spotify": "https://open.spotify.com/playlist/7g2JTpwO5SOvTp8WQmapio"
            },
            "href": "https://api.spotify.com/v1/playlists/7g2JTpwO5SOvTp8WQmapio",
            "id": "7g2JTpwO5SOvTp8WQmapio",
            "images": [
                
            ],
            "name": "Old",
            "owner": {
                "display_name": "priya",
                "external_urls": {
                    "spotify": "https://open.spotify.com/user/my55whm8jotn3kr4c54svsjq4"
                },
                "href": "https://api.spotify.com/v1/users/my55whm8jotn3kr4c54svsjq4",
                "id": "my55whm8jotn3kr4c54svsjq4",
                "type": "user",
                "uri": "spotify:user:my55whm8jotn3kr4c54svsjq4"
            },
            "primary_color": null,
            "public": false,
            "snapshot_id": "Miw2MzY1NmY2YTA1ZDE1MTNkMDlhM2I1MWE0MGY3ZjA1ZjQ0YzE1ZDFk",
            "tracks": {
                "href": "https://api.spotify.com/v1/playlists/7g2JTpwO5SOvTp8WQmapio/tracks",
                "total": 0
            },
            "type": "playlist",
            "uri": "spotify:playlist:7g2JTpwO5SOvTp8WQmapio"
        },
        {
            "collaborative": false,
            "description": "New playlist description",
            "external_urls": {
                "spotify": "https://open.spotify.com/playlist/2nwhJzncaEehstXdKvQz54"
            },
            "href": "https://api.spotify.com/v1/playlists/2nwhJzncaEehstXdKvQz54",
            "id": "2nwhJzncaEehstXdKvQz54",
            "images": [
                
            ],
            "name": "Old",
            "owner": {
                "display_name": "priya",
                "external_urls": {
                    "spotify": "https://open.spotify.com/user/my55whm8jotn3kr4c54svsjq4"
                },
                "href": "https://api.spotify.com/v1/users/my55whm8jotn3kr4c54svsjq4",
                "id": "my55whm8jotn3kr4c54svsjq4",
                "type": "user",
                "uri": "spotify:user:my55whm8jotn3kr4c54svsjq4"
            },
            "primary_color": null,
            "public": false,
            "snapshot_id": "MixlOTdiMmYzZjZkYTVhMDVhMzM5OGM1ZjUzNzU3NGI5MTA0ZWFjYzVh",
            "tracks": {
                "href": "https://api.spotify.com/v1/playlists/2nwhJzncaEehstXdKvQz54/tracks",
                "total": 0
            },
            "type": "playlist",
            "uri": "spotify:playlist:2nwhJzncaEehstXdKvQz54"
        }
    ],
    "limit": 20,
    "next": "https://api.spotify.com/v1/users/my55whm8jotn3kr4c54svsjq4/playlists?offset=20&limit=20",
    "offset": 0,
    "previous": null,
    "total": 24
}
Playlist count: 24
]]></system-out>
  <system-err><![CDATA[]]></system-err>
</testsuite>
